2016-01-05 15:20:31 [installscript] Running install on: SunOS | Apache/2.2.31 (Unix) | php 5.6.14 | safe_mode: 0 | interface: cgi-fcgi
2016-01-05 15:20:31 [installscript] Found 3 chained extensions.
2016-01-05 15:20:31 [installscript] Installing LIBRARY... [SUCCESS]
2016-01-05 15:20:31 [installscript] Installing MODULE... [SUCCESS]
2016-01-05 15:20:31 [installscript] Installing PLUGIN... [SUCCESS]
2016-01-05 15:20:31 [installscript] Determining correct file permissions...  [100644]
2016-01-05 15:20:31 [installscript] setting permissions for [/mnt/webw/b3/07/56938707/htdocs/joomla_01/components/com_nexevocontact/lib/functions.php]... [1]
2016-01-05 15:20:31 [installscript] Determining correct directory permissions...  [40755]
2016-01-05 15:20:31 [installscript] setting permissions for [/mnt/webw/b3/07/56938707/htdocs/joomla_01/components]... [1]
2016-01-05 15:20:31 [installscript] setting permissions for [/mnt/webw/b3/07/56938707/htdocs/joomla_01/components/com_nexevocontact]... [1]
2016-01-05 15:20:31 [installscript] setting permissions for [/mnt/webw/b3/07/56938707/htdocs/joomla_01/components/com_nexevocontact/lib]... [1]
2016-01-05 15:20:31 [fieldsbuilder] --- Determining if this system is able to query DNS records ---
2016-01-05 15:20:31 [fieldsbuilder] checkdnsrr function found. Let's see if it works.
2016-01-05 15:20:31 [fieldsbuilder] testing function [checkdnsrr]... [1]
2016-01-05 15:20:31 [fieldsbuilder] --- Method choosen to query DNS records is [dns_check] ---
2016-01-05 15:20:31 [ncaptchaimage] --- Determining if this system is able to draw captcha images ---
2016-01-05 15:20:31 [ncaptchaimage] gd extension found. Let's see if it works.
2016-01-05 15:20:31 [ncaptchaimage] GD Version... [bundled (2.1.0 compatible)]
2016-01-05 15:20:31 [ncaptchaimage] FreeType Support... [1]
2016-01-05 15:20:31 [ncaptchaimage] FreeType Linkage... [with freetype]
2016-01-05 15:20:31 [ncaptchaimage] T1Lib Support... []
2016-01-05 15:20:31 [ncaptchaimage] GIF Read Support... [1]
2016-01-05 15:20:31 [ncaptchaimage] GIF Create Support... [1]
2016-01-05 15:20:31 [ncaptchaimage] JPEG Support... [1]
2016-01-05 15:20:31 [ncaptchaimage] PNG Support... [1]
2016-01-05 15:20:31 [ncaptchaimage] WBMP Support... [1]
2016-01-05 15:20:31 [ncaptchaimage] XPM Support... []
2016-01-05 15:20:31 [ncaptchaimage] XBM Support... [1]
2016-01-05 15:20:31 [ncaptchaimage] WebP Support... []
2016-01-05 15:20:31 [ncaptchaimage] JIS-mapped Japanese Font Support... []
2016-01-05 15:20:31 [ncaptchaimage] testing function [imagecreate]... [1]
2016-01-05 15:20:31 [ncaptchaimage] testing function [imagecolorallocate]... [1]
2016-01-05 15:20:31 [ncaptchaimage] testing function [imagefill]... [1]
2016-01-05 15:20:31 [ncaptchaimage] testing function [imageline]... [1]
2016-01-05 15:20:31 [ncaptchaimage] testing function [imagettftext]... [1]
2016-01-05 15:20:31 [ncaptchaimage] testing function [imagejpeg]... [1]
2016-01-05 15:20:31 [ncaptchaimage] testing function [imagedestroy]... [1]
2016-01-05 15:20:31 [ncaptchaimage] --- Method choosen to draw captcha images is [use_gd] ---
2016-01-05 15:20:31 [nmimetype] --- Determining if this system is able to detect file mime types ---
2016-01-05 15:20:31 [nmimetype] fileinfo extension found. Let's see if it works.
2016-01-05 15:20:31 [nmimetype] testing detected mimetype [audio/mpeg; charset=binary] seeking expected string [/^audio\//]... [1]
2016-01-05 15:20:31 [nmimetype] testing detected mimetype [video/mp4; charset=binary] seeking expected string [/^video\//]... [1]
2016-01-05 15:20:31 [nmimetype] testing detected mimetype [image/jpeg; charset=binary] seeking expected string [/^image\//]... [1]
2016-01-05 15:20:31 [nmimetype] testing detected mimetype [application/zip; charset=binary] seeking expected string [/^application\/.*zip/]... [1]
2016-01-05 15:20:31 [nmimetype] testing detected mimetype [application/pdf; charset=binary] seeking expected string [/^application\/pdf/]... [1]
2016-01-05 15:20:31 [nmimetype] --- Method choosen to detect file mime types is [use_fileinfo] ---
2016-01-05 15:20:31 [installscript] Component installation seems successfull.
